report
…
Tab1$length_stay<-as.numeric(Tab1$length_stay)

serv3 <- serv2|>merge(Tab1,by.x="id",by.y="id")|>
  mutate(psy1=psyc/length_stay,
         op=op_room/length_stay,
         ana=anaest/length_stay,nurs=nurs/length_stay,int_care=int_care/length_stay,img=imag/length_stay,lb=lab/length_stay,incare=int_care/length_stay,ergo=ergo/length_stay)|>select(op,ana,img,nurs,lb,incare,Clinical.Pathway)|>group_by(Clinical.Pathway)|>
  summarize(avg_op=mean(op,na.rm=TRUE),avg_ana=mean(ana,na.rm=TRUE),avg_img=mean(img,na.rm=TRUE),avg_lb=mean(lb,na.rm=TRUE),avg_incare=mean(incare,na.rm=TRUE))

  treemap_pathways <- gather(serv3,A,V,avg_op:avg_incare)

treemap_pathways|>arrange(Clinical.Pathway,A,V)

# A tibble: 30 × 3
   Clinical.Pathway   A               V
   <chr>              <chr>       <dbl>
 1 Erstrehabilitation avg_ana     2.47 
 2 Erstrehabilitation avg_img    50.9  
 3 Erstrehabilitation avg_incare  4.84 
 4 Erstrehabilitation avg_lb     77.3  
 5 Erstrehabilitation avg_op      0.753
 6 Handhandchirurgie  avg_ana    36.6  
 7 Handhandchirurgie  avg_img    23.2  
 8 Handhandchirurgie  avg_incare  1.58 
 9 Handhandchirurgie  avg_lb     48.2  
10 Handhandchirurgie  avg_op     11.8  
# … with 20 more rows
…
